exp8/unidade_de_controle/simulation/qsim/unidade_de_controle.msim.vcd
$comment
	File created using the following command:
		vcd file unidade_de_controle.msim.vcd -direction
$end
$date
	Sun Jun 12 13:07:24 2022
$end
$version
	ModelSim Version 10.5b
$end
$timescale
	1ps
$end

$scope module unidade_de_controle_vlg_vec_tst $end
$var reg 1 ! clock $end
$var reg 1 " muda_estado $end
$var wire 1 # modo $end

$scope module i1 $end
$var wire 1 $ gnd $end
$var wire 1 % vcc $end
$var wire 1 & unknown $end
$var tri1 1 ' devclrn $end
$var tri1 1 ( devpor $end
$var tri1 1 ) devoe $end
$var wire 1 * ~QUARTUS_CREATED_GND~I_combout $end
$var wire 1 + clock~input_o $end
$var wire 1 , clock~inputCLKENA0_outclk $end
$var wire 1 - muda_estado~input_o $end
$var wire 1 . NextState.mudanca_op_conf~0_combout $end
$var wire 1 / CurrentState.mudanca_op_conf~q $end
$var wire 1 0 NextState.mudanca_conf_op~0_combout $end
$var wire 1 1 CurrentState.mudanca_conf_op~q $end
$var wire 1 2 Selector1~0_combout $end
$var wire 1 3 CurrentState.configuracao~q $end
$var wire 1 4 Selector0~0_combout $end
$var wire 1 5 CurrentState.operacao~q $end
$var wire 1 6 modo~2_combout $end
$upscope $end
$upscope $end
$enddefinitions $end
#0
$dumpvars
0!
0"
0#
0$
1%
x&
1'
1(
1)
0*
0+
0,
0-
0.
0/
00
01
02
03
04
05
16
$end
#20000
1!
1+
1,
#40000
1"
0!
1-
0+
0,
14
1.
#60000
1!
1+
1,
15
1/
06
1#
#80000
0!
0+
0,
#100000
1!
1+
1,
#120000
0!
0+
0,
#140000
1!
1+
1,
#150000
0"
0-
12
0.
#160000
0!
0+
0,
#180000
1!
1+
1,
13
0/
#200000
0!
0+
0,
#220000
1!
1+
1,
#240000
0!
0+
0,
#260000
1!
1+
1,
#270000
1"
1-
02
10
#280000
0!
0+
0,
#300000
1!
1+
1,
03
11
16
0#
#320000
0!
0+
0,
#340000
0"
1!
0-
1+
1,
04
00
#360000
0!
0+
0,
#380000
1!
1+
1,
05
01
#400000
0!
0+
0,
#410000
1"
1-
14
1.
#420000
1!
1+
1,
15
1/
06
1#
#440000
0"
0!
0-
0+
0,
12
0.
#460000
1!
1+
1,
13
0/
#480000
0!
0+
0,
#500000
1!
1+
1,
#520000
0!
0+
0,
#540000
1!
1+
1,
#560000
0!
0+
0,
#580000
1!
1+
1,
#600000
0!
0+
0,
#620000
1!
1+
1,
#640000
0!
0+
0,
#660000
1!
1+
1,
#680000
0!
0+
0,
#700000
1!
1+
1,
#720000
0!
0+
0,
#740000
1!
1+
1,
#760000
0!
0+
0,
#780000
1!
1+
1,
#800000
0!
0+
0,
#820000
1!
1+
1,
#840000
0!
0+
0,
#860000
1!
1+
1,
#880000
0!
0+
0,
#900000
1!
1+
1,
#920000
0!
0+
0,
#940000
1!
1+
1,
#960000
0!
0+
0,
#980000
1!
1+
1,
