exp6/projetos/contador_idosos_02/simulation/qsim/controlador_de_vagas.msim.vcd
$comment
	File created using the following command:
		vcd file controlador_de_vagas.msim.vcd -direction
$end
$date
	Sun May 29 21:35:04 2022
$end
$version
	ModelSim Version 10.5b
$end
$timescale
	1ps
$end

$scope module controlador_de_vagas_vhd_vec_tst $end
$var wire 1 ! cheio $end
$var wire 1 " cheio_dp_sm $end
$var wire 1 # clear $end
$var wire 1 $ clear_sm_dp $end
$var wire 1 % clock $end
$var wire 1 & conta_idosos $end
$var wire 1 ' conta_idosos_sm_dp $end
$var wire 1 ( conta_normal $end
$var wire 1 ) conta_normal_sm_dp $end
$var wire 1 * entra_sai_idosos $end
$var wire 1 + entra_sai_idosos_sm_dp $end
$var wire 1 , entra_sai_normal $end
$var wire 1 - entra_sai_normal_sm_dp $end
$var wire 1 . vagas_load [3] $end
$var wire 1 / vagas_load [2] $end
$var wire 1 0 vagas_load [1] $end
$var wire 1 1 vagas_load [0] $end
$var wire 1 2 vagas_out_idosos [3] $end
$var wire 1 3 vagas_out_idosos [2] $end
$var wire 1 4 vagas_out_idosos [1] $end
$var wire 1 5 vagas_out_idosos [0] $end
$var wire 1 6 vagas_out_total [3] $end
$var wire 1 7 vagas_out_total [2] $end
$var wire 1 8 vagas_out_total [1] $end
$var wire 1 9 vagas_out_total [0] $end
$var wire 1 : vagas_total [3] $end
$var wire 1 ; vagas_total [2] $end
$var wire 1 < vagas_total [1] $end
$var wire 1 = vagas_total [0] $end

$scope module i1 $end
$var wire 1 > gnd $end
$var wire 1 ? vcc $end
$var wire 1 @ unknown $end
$var wire 1 A devoe $end
$var wire 1 B devclrn $end
$var wire 1 C devpor $end
$var wire 1 D ww_devoe $end
$var wire 1 E ww_devclrn $end
$var wire 1 F ww_devpor $end
$var wire 1 G ww_entra_sai_idosos $end
$var wire 1 H ww_entra_sai_normal $end
$var wire 1 I ww_conta_idosos $end
$var wire 1 J ww_conta_normal $end
$var wire 1 K ww_clock $end
$var wire 1 L ww_clear $end
$var wire 1 M ww_vagas_total [3] $end
$var wire 1 N ww_vagas_total [2] $end
$var wire 1 O ww_vagas_total [1] $end
$var wire 1 P ww_vagas_total [0] $end
$var wire 1 Q ww_vagas_load [3] $end
$var wire 1 R ww_vagas_load [2] $end
$var wire 1 S ww_vagas_load [1] $end
$var wire 1 T ww_vagas_load [0] $end
$var wire 1 U ww_vagas_out_total [3] $end
$var wire 1 V ww_vagas_out_total [2] $end
$var wire 1 W ww_vagas_out_total [1] $end
$var wire 1 X ww_vagas_out_total [0] $end
$var wire 1 Y ww_vagas_out_idosos [3] $end
$var wire 1 Z ww_vagas_out_idosos [2] $end
$var wire 1 [ ww_vagas_out_idosos [1] $end
$var wire 1 \ ww_vagas_out_idosos [0] $end
$var wire 1 ] ww_cheio $end
$var wire 1 ^ ww_entra_sai_idosos_sm_dp $end
$var wire 1 _ ww_entra_sai_normal_sm_dp $end
$var wire 1 ` ww_conta_idosos_sm_dp $end
$var wire 1 a ww_conta_normal_sm_dp $end
$var wire 1 b ww_clear_sm_dp $end
$var wire 1 c ww_cheio_dp_sm $end
$var wire 1 d \vagas_load[0]~input_o\ $end
$var wire 1 e \vagas_load[1]~input_o\ $end
$var wire 1 f \vagas_load[2]~input_o\ $end
$var wire 1 g \vagas_load[3]~input_o\ $end
$var wire 1 h \vagas_out_total[0]~output_o\ $end
$var wire 1 i \vagas_out_total[1]~output_o\ $end
$var wire 1 j \vagas_out_total[2]~output_o\ $end
$var wire 1 k \vagas_out_total[3]~output_o\ $end
$var wire 1 l \vagas_out_idosos[0]~output_o\ $end
$var wire 1 m \vagas_out_idosos[1]~output_o\ $end
$var wire 1 n \vagas_out_idosos[2]~output_o\ $end
$var wire 1 o \vagas_out_idosos[3]~output_o\ $end
$var wire 1 p \cheio~output_o\ $end
$var wire 1 q \entra_sai_idosos_sm_dp~output_o\ $end
$var wire 1 r \entra_sai_normal_sm_dp~output_o\ $end
$var wire 1 s \conta_idosos_sm_dp~output_o\ $end
$var wire 1 t \conta_normal_sm_dp~output_o\ $end
$var wire 1 u \clear_sm_dp~output_o\ $end
$var wire 1 v \cheio_dp_sm~output_o\ $end
$var wire 1 w \clock~input_o\ $end
$var wire 1 x \FD|cont_total|IQ[0]~3_combout\ $end
$var wire 1 y \clear~input_o\ $end
$var wire 1 z \entra_sai_idosos~input_o\ $end
$var wire 1 { \entra_sai_normal~input_o\ $end
$var wire 1 | \FD|entra_sai_total_s~combout\ $end
$var wire 1 } \FD|cont_total|IQ~0_combout\ $end
$var wire 1 ~ \vagas_total[1]~input_o\ $end
$var wire 1 !! \vagas_total[0]~input_o\ $end
$var wire 1 "! \FD|comp1|maior_igual~0_combout\ $end
$var wire 1 #! \conta_normal~input_o\ $end
$var wire 1 $! \FD|cont_total|IQ~1_combout\ $end
$var wire 1 %! \FD|cont_total|IQ~2_combout\ $end
$var wire 1 &! \vagas_total[3]~input_o\ $end
$var wire 1 '! \vagas_total[2]~input_o\ $end
$var wire 1 (! \FD|comp1|maior_igual~1_combout\ $end
$var wire 1 )! \FD|comp1|maior_igual~2_combout\ $end
$var wire 1 *! \conta_idosos~input_o\ $end
$var wire 1 +! \UC|Selector5~0_combout\ $end
$var wire 1 ,! \UC|Selector5~1_combout\ $end
$var wire 1 -! \UC|CurrentState.cheio~q\ $end
$var wire 1 .! \UC|Selector3~0_combout\ $end
$var wire 1 /! \UC|Selector3~1_combout\ $end
$var wire 1 0! \UC|CurrentState.inc_idosos~q\ $end
$var wire 1 1! \UC|Selector2~0_combout\ $end
$var wire 1 2! \UC|CurrentState.zera_vagas~q\ $end
$var wire 1 3! \UC|Selector2~1_combout\ $end
$var wire 1 4! \UC|Selector2~2_combout\ $end
$var wire 1 5! \UC|CurrentState.vazio~q\ $end
$var wire 1 6! \UC|Selector4~0_combout\ $end
$var wire 1 7! \UC|Selector4~1_combout\ $end
$var wire 1 8! \UC|CurrentState.inc_normal~q\ $end
$var wire 1 9! \UC|NextState~0_combout\ $end
$var wire 1 :! \FD|cont_idosos|IQ[0]~3_combout\ $end
$var wire 1 ;! \FD|cont_idosos|IQ~0_combout\ $end
$var wire 1 <! \FD|cont_idosos|IQ~1_combout\ $end
$var wire 1 =! \FD|cont_idosos|IQ~2_combout\ $end
$var wire 1 >! \FD|comp1|maior_igual~3_combout\ $end
$var wire 1 ?! \UC|Selector1~0_combout\ $end
$var wire 1 @! \FD|cont_total|IQ\ [3] $end
$var wire 1 A! \FD|cont_total|IQ\ [2] $end
$var wire 1 B! \FD|cont_total|IQ\ [1] $end
$var wire 1 C! \FD|cont_total|IQ\ [0] $end
$var wire 1 D! \FD|cont_idosos|IQ\ [3] $end
$var wire 1 E! \FD|cont_idosos|IQ\ [2] $end
$var wire 1 F! \FD|cont_idosos|IQ\ [1] $end
$var wire 1 G! \FD|cont_idosos|IQ\ [0] $end
$var wire 1 H! \ALT_INV_conta_idosos~input_o\ $end
$var wire 1 I! \ALT_INV_conta_normal~input_o\ $end
$var wire 1 J! \ALT_INV_clear~input_o\ $end
$var wire 1 K! \ALT_INV_clock~input_o\ $end
$var wire 1 L! \ALT_INV_entra_sai_normal~input_o\ $end
$var wire 1 M! \ALT_INV_entra_sai_idosos~input_o\ $end
$var wire 1 N! \ALT_INV_vagas_total[2]~input_o\ $end
$var wire 1 O! \ALT_INV_vagas_total[3]~input_o\ $end
$var wire 1 P! \ALT_INV_vagas_total[0]~input_o\ $end
$var wire 1 Q! \ALT_INV_vagas_total[1]~input_o\ $end
$var wire 1 R! \UC|ALT_INV_Selector5~0_combout\ $end
$var wire 1 S! \UC|ALT_INV_Selector2~1_combout\ $end
$var wire 1 T! \UC|ALT_INV_Selector2~0_combout\ $end
$var wire 1 U! \UC|ALT_INV_Selector3~0_combout\ $end
$var wire 1 V! \UC|ALT_INV_Selector4~0_combout\ $end
$var wire 1 W! \UC|ALT_INV_CurrentState.cheio~q\ $end
$var wire 1 X! \UC|ALT_INV_CurrentState.vazio~q\ $end
$var wire 1 Y! \FD|ALT_INV_entra_sai_total_s~combout\ $end
$var wire 1 Z! \UC|ALT_INV_NextState~0_combout\ $end
$var wire 1 [! \UC|ALT_INV_CurrentState.zera_vagas~q\ $end
$var wire 1 \! \UC|ALT_INV_CurrentState.inc_idosos~q\ $end
$var wire 1 ]! \UC|ALT_INV_CurrentState.inc_normal~q\ $end
$var wire 1 ^! \FD|comp1|ALT_INV_maior_igual~2_combout\ $end
$var wire 1 _! \FD|comp1|ALT_INV_maior_igual~1_combout\ $end
$var wire 1 `! \FD|comp1|ALT_INV_maior_igual~0_combout\ $end
$var wire 1 a! \FD|cont_idosos|ALT_INV_IQ\ [3] $end
$var wire 1 b! \FD|cont_idosos|ALT_INV_IQ\ [2] $end
$var wire 1 c! \FD|cont_idosos|ALT_INV_IQ\ [1] $end
$var wire 1 d! \FD|cont_idosos|ALT_INV_IQ\ [0] $end
$var wire 1 e! \FD|cont_total|ALT_INV_IQ\ [3] $end
$var wire 1 f! \FD|cont_total|ALT_INV_IQ\ [2] $end
$var wire 1 g! \FD|cont_total|ALT_INV_IQ\ [1] $end
$var wire 1 h! \FD|cont_total|ALT_INV_IQ\ [0] $end
$upscope $end
$upscope $end
$enddefinitions $end
#0
$dumpvars
0!
0"
0#
1$
0%
0&
0'
0(
0)
1*
1+
1,
1-
0>
1?
x@
1A
1B
1C
1D
1E
1F
1G
1H
0I
0J
0K
0L
0]
1^
1_
0`
0a
1b
0c
0d
0e
0f
0g
0h
0i
0j
0k
0l
0m
0n
0o
0p
1q
1r
0s
0t
1u
0v
0w
1x
0y
1z
1{
0|
0}
1~
0!!
1"!
0#!
0$!
0%!
1&!
0'!
0(!
0)!
0*!
0+!
0,!
0-!
0.!
0/!
00!
01!
02!
03!
14!
05!
06!
07!
08!
09!
1:!
0;!
0<!
0=!
0>!
1?!
1H!
1I!
1J!
1K!
0L!
0M!
1N!
0O!
1P!
0Q!
1R!
1S!
1T!
1U!
1V!
1W!
1X!
1Y!
1Z!
1[!
1\!
1]!
1^!
1_!
0`!
0.
0/
00
01
1:
0;
1<
0=
06
07
08
09
02
03
04
05
1M
0N
1O
0P
0Q
0R
0S
0T
0U
0V
0W
0X
0Y
0Z
0[
0\
0@!
0A!
0B!
0C!
0D!
0E!
0F!
0G!
1a!
1b!
1c!
1d!
1e!
1f!
1g!
1h!
$end
#10000
1%
1K
1w
0K!
12!
15!
0X!
0[!
0u
0b
0$
#20000
0%
0K
0w
1K!
#30000
1%
1K
1w
0K!
#40000
0%
0K
0w
1K!
#50000
1%
1K
1w
0K!
#60000
0%
1(
0K
1J
1#!
0w
1K!
0I!
13!
16!
0V!
0S!
04!
17!
#70000
1%
1K
1w
0K!
05!
18!
0]!
1X!
06!
19!
0Z!
1V!
1t
1a
1)
#80000
0%
0K
0w
1K!
1C!
0h!
0x
1}
1h
1X
19
#90000
1%
1K
1w
0K!
#100000
0%
0K
0w
1K!
1B!
0C!
1h!
0g!
1x
0"!
1`!
0h
1i
0X
1W
09
18
#110000
1%
1K
1w
0K!
#120000
0%
0K
0w
1K!
1C!
0h!
0x
0}
1$!
1h
1X
19
#130000
1%
1K
1w
0K!
#140000
0%
0(
0K
0J
0#!
0w
1K!
1I!
11!
07!
0B!
1A!
0C!
1h!
0f!
1g!
0T!
14!
1x
1"!
0`!
0h
1j
0i
0X
1V
0W
09
08
17
#150000
1%
1K
1w
0K!
15!
08!
1]!
0X!
03!
01!
09!
1Z!
1T!
1S!
0t
0a
0)
#160000
0%
0K
0w
1K!
#170000
1%
1K
1w
0K!
#180000
0%
0K
0w
1K!
#190000
1%
1K
1w
0K!
#200000
0%
1&
0K
1I
1*!
0w
1K!
0H!
1.!
13!
0S!
0U!
1/!
04!
#210000
1%
1K
1w
0K!
10!
05!
1X!
0\!
19!
0.!
1U!
0Z!
1s
1`
1'
#220000
0%
0K
0w
1K!
1C!
1G!
0d!
0h!
0x
1}
0:!
1;!
1l
1h
1\
1X
15
19
#230000
1%
1K
1w
0K!
#240000
0%
0K
0w
1K!
1B!
0C!
0G!
1F!
0c!
1d!
1h!
0g!
1x
0"!
1:!
1`!
1m
0l
0h
1i
1[
0\
0X
1W
05
14
09
18
#250000
1%
1K
1w
0K!
#260000
0%
0K
0w
1K!
1C!
1G!
0d!
0h!
0x
0}
0$!
1%!
0:!
0;!
1<!
1l
1h
1\
1X
15
19
#270000
1%
1K
1w
0K!
#280000
0%
0&
0K
0I
0*!
0w
1K!
1H!
0/!
11!
0B!
0A!
1@!
0C!
0G!
0F!
1E!
0b!
1c!
1d!
1h!
0e!
1f!
1g!
0T!
14!
1(!
1x
1"!
1:!
0`!
0_!
1n
0m
0l
0h
1k
0j
0i
1Z
0[
0\
0X
1U
0V
0W
05
04
13
09
08
07
16
#290000
1%
1K
1w
0K!
00!
15!
0X!
1\!
01!
09!
03!
1S!
1Z!
1T!
0s
0`
0'
#300000
0%
0K
0w
1K!
#310000
1%
1K
1w
0K!
#320000
0%
0K
0w
1K!
#330000
1%
1K
1w
0K!
#340000
0%
1&
1(
0K
1I
1J
1#!
1*!
0w
1K!
0H!
0I!
1.!
13!
0S!
0U!
1/!
04!
#350000
1%
1K
1w
0K!
10!
05!
1X!
0\!
19!
0.!
1U!
0Z!
1s
1`
1'
#360000
0%
0&
0(
0K
0I
0J
0#!
0*!
0w
1K!
1H!
1I!
0/!
11!
1C!
1G!
0d!
0h!
0T!
14!
0x
1}
0:!
1;!
1l
1h
1\
1X
15
19
#370000
1%
1K
1w
0K!
00!
15!
0X!
1\!
01!
09!
03!
1S!
1Z!
1T!
0s
0`
0'
#380000
0%
0K
0w
1K!
#390000
1%
1K
1w
0K!
#400000
0%
0K
0w
1K!
#410000
1%
0,
0*
1K
0H
0G
0z
0{
1w
0K!
1L!
1M!
0;!
1|
0?!
0Y!
0q
0}
0^
0+
0r
0_
0-
#420000
0%
1&
0K
1I
1*!
0w
1K!
0H!
1.!
13!
0S!
0U!
1/!
04!
#430000
1%
1K
1w
0K!
10!
05!
1X!
0\!
19!
0.!
1U!
0Z!
1s
1`
1'
#440000
0%
0K
0w
1K!
0C!
0G!
1d!
1h!
1x
1}
1$!
0%!
1:!
1;!
0<!
0l
0h
0\
0X
05
09
#450000
1%
1K
1w
0K!
#460000
0%
0K
0w
1K!
1B!
1A!
0@!
1C!
1G!
1F!
0E!
1b!
0c!
0d!
0h!
1e!
0f!
0g!
0(!
0x
0"!
0:!
1`!
1_!
0n
1m
1l
1h
0k
1j
1i
0Z
1[
1\
1X
0U
1V
1W
15
14
03
19
18
17
06
#470000
1%
1K
1w
0K!
#480000
0%
0&
0K
0I
0*!
0w
1K!
1H!
0/!
11!
0C!
0G!
1d!
1h!
0T!
14!
1x
0}
1:!
0;!
0l
0h
0\
0X
05
09
#490000
1%
1K
1w
0K!
00!
15!
0X!
1\!
01!
09!
03!
1S!
1Z!
1T!
0s
0`
0'
#500000
0%
0K
0w
1K!
#510000
1%
1K
1w
0K!
#520000
0%
1(
0K
1J
1#!
0w
1K!
0I!
13!
16!
0V!
0S!
04!
17!
#530000
1%
1K
1w
0K!
05!
18!
0]!
1X!
06!
19!
0Z!
1V!
1t
1a
1)
#540000
0%
0K
0w
1K!
0B!
1C!
0h!
1g!
0x
1"!
0`!
1h
0i
1X
0W
19
08
#550000
1%
1K
1w
0K!
#560000
0%
0K
0w
1K!
0C!
1h!
1x
1}
0$!
0h
0X
09
#570000
1%
1K
1w
0K!
#580000
0%
0(
0K
0J
0#!
0w
1K!
1I!
11!
07!
1B!
0A!
1C!
0h!
1f!
0g!
0T!
14!
0x
0"!
1`!
1h
0j
1i
1X
0V
1W
19
18
07
#590000
1%
1K
1w
0K!
15!
08!
1]!
0X!
03!
01!
09!
1Z!
1T!
1S!
0t
0a
0)
#600000
0%
1,
1*
0K
1H
1G
1z
1{
0w
1K!
0L!
0M!
1;!
0|
1?!
1Y!
1q
0}
1$!
1^
1+
1r
1_
1-
#610000
1%
1K
1w
0K!
#620000
0%
0K
0w
1K!
#630000
1%
1K
1w
0K!
#640000
0%
1&
0K
1I
1*!
0w
1K!
0H!
1.!
13!
0S!
0U!
1/!
04!
#650000
1%
1K
1w
0K!
10!
05!
1X!
0\!
19!
0.!
1U!
0Z!
1s
1`
1'
#660000
0%
0K
0w
1K!
0B!
1A!
0C!
1G!
0d!
1h!
0f!
1g!
1x
1"!
0:!
0;!
1<!
0`!
1l
0h
1j
0i
1\
0X
1V
0W
15
09
08
17
#670000
1%
1K
1w
0K!
#680000
0%
0K
0w
1K!
1C!
0G!
0F!
1E!
0b!
1c!
1d!
0h!
0x
1}
1:!
1n
0m
0l
1h
1Z
0[
0\
1X
05
04
13
19
#690000
1%
1K
1w
0K!
#700000
0%
0K
0w
1K!
1B!
0C!
1G!
0d!
1h!
0g!
1x
0"!
0:!
1;!
1`!
1l
0h
1i
1\
0X
1W
15
09
18
#710000
1%
1K
1w
0K!
#720000
0%
0K
0w
1K!
1C!
0G!
1F!
0c!
1d!
0h!
0x
0}
0$!
1%!
1:!
1m
0l
1h
1[
0\
1X
05
14
19
#730000
1%
1K
1w
0K!
#740000
0%
0K
0w
1K!
0B!
0A!
1@!
0C!
1G!
0d!
1h!
0e!
1f!
1g!
1(!
1x
1"!
0:!
0;!
0<!
1=!
0`!
0_!
1l
0h
1k
0j
0i
1\
0X
1U
0V
0W
15
09
08
07
16
#750000
1%
1K
1w
0K!
#760000
0%
0K
0w
1K!
1C!
0G!
0F!
0E!
1D!
0a!
1b!
1c!
1d!
0h!
0x
1}
1:!
1o
0n
0m
0l
1h
1Y
0Z
0[
0\
1X
05
04
03
12
19
#770000
1%
1K
1w
0K!
#780000
0%
0K
0w
1K!
1B!
0C!
1G!
0d!
1h!
0g!
1x
0"!
0:!
1;!
1`!
1l
0h
1i
1,!
0/!
1>!
1\
0X
1W
15
09
18
1p
1v
1]
1c
1!
1"
#790000
1%
1K
1w
0K!
1-!
00!
1\!
0W!
1+!
09!
1Z!
0R!
0s
0`
0'
#800000
0%
0K
0w
1K!
#810000
1%
1K
1w
0K!
#820000
0%
0&
0K
0I
0*!
0w
1K!
1H!
#830000
1%
1K
1w
0K!
#840000
0%
0K
0w
1K!
#850000
1%
1K
1w
0K!
#860000
0%
0K
0w
1K!
#870000
1%
1K
1w
0K!
#880000
0%
1&
0,
0*
0K
1I
0H
0G
0z
0{
1*!
0w
1K!
0H!
1L!
1M!
0;!
1|
0?!
0+!
1.!
0U!
1R!
0Y!
0q
0}
0,!
1/!
0^
0+
0r
0_
0-
#890000
1%
1K
1w
0K!
0-!
10!
0\!
1W!
0.!
19!
0Z!
1U!
1s
0/!
1,!
1`
1'
#900000
0%
0K
0w
1K!
0B!
1C!
0G!
1d!
0h!
1g!
0x
1"!
1:!
1;!
1<!
0=!
0`!
0l
1h
0i
0,!
1/!
0>!
0\
1X
0W
05
19
08
0p
0v
0]
0c
0!
0"
#910000
1%
1K
1w
0K!
#920000
0%
0&
0K
0I
0*!
0w
1K!
1H!
0/!
11!
0C!
1G!
1F!
1E!
0D!
1a!
0b!
0c!
0d!
1h!
0T!
14!
1x
1}
1$!
0%!
0:!
0o
1n
1m
1l
0h
0Y
1Z
1[
1\
0X
15
14
13
02
09
#930000
1%
1,
1*
1K
1H
1G
1z
1{
1w
0K!
0L!
0M!
00!
15!
0;!
0<!
1=!
0|
1?!
0X!
1\!
1Y!
1q
01!
09!
03!
0}
0$!
1%!
1S!
1Z!
1T!
1^
0s
1+
1r
0`
1_
0'
1-
#940000
0%
1(
0K
1J
1#!
0w
1K!
0I!
13!
16!
0V!
0S!
04!
17!
#950000
1%
1K
1w
0K!
05!
18!
0]!
1X!
06!
19!
0Z!
1V!
1t
1a
1)
#960000
0%
0(
0K
0J
0#!
0w
1K!
1I!
11!
07!
1C!
0h!
0T!
14!
0x
1}
1h
1X
19
#970000
1%
1K
1w
0K!
15!
08!
1]!
0X!
03!
01!
09!
1Z!
1T!
1S!
0t
0a
0)
#980000
0%
0K
0w
1K!
#990000
1%
1K
1w
0K!
