exp5/contador_hexadecimal/simulation/qsim/contador_hexadecimal.msim.vcd
$comment
	File created using the following command:
		vcd file contador_hexadecimal.msim.vcd -direction
$end
$date
	Sun May 22 14:41:46 2022
$end
$version
	ModelSim Version 10.5b
$end
$timescale
	1ps
$end

$scope module contador_hexadecimal_vhd_vec_tst $end
$var wire 1 ! carrega $end
$var wire 1 " clock $end
$var wire 1 # conta $end
$var wire 1 $ contagem [3] $end
$var wire 1 % contagem [2] $end
$var wire 1 & contagem [1] $end
$var wire 1 ' contagem [0] $end
$var wire 1 ( entrada [3] $end
$var wire 1 ) entrada [2] $end
$var wire 1 * entrada [1] $end
$var wire 1 + entrada [0] $end
$var wire 1 , fim $end
$var wire 1 - zera $end

$scope module i1 $end
$var wire 1 . gnd $end
$var wire 1 / vcc $end
$var wire 1 0 unknown $end
$var wire 1 1 devoe $end
$var wire 1 2 devclrn $end
$var wire 1 3 devpor $end
$var wire 1 4 ww_devoe $end
$var wire 1 5 ww_devclrn $end
$var wire 1 6 ww_devpor $end
$var wire 1 7 ww_clock $end
$var wire 1 8 ww_zera $end
$var wire 1 9 ww_conta $end
$var wire 1 : ww_carrega $end
$var wire 1 ; ww_entrada [3] $end
$var wire 1 < ww_entrada [2] $end
$var wire 1 = ww_entrada [1] $end
$var wire 1 > ww_entrada [0] $end
$var wire 1 ? ww_contagem [3] $end
$var wire 1 @ ww_contagem [2] $end
$var wire 1 A ww_contagem [1] $end
$var wire 1 B ww_contagem [0] $end
$var wire 1 C ww_fim $end
$var wire 1 D \~QUARTUS_CREATED_GND~I_combout\ $end
$var wire 1 E \clock~input_o\ $end
$var wire 1 F \clock~inputCLKENA0_outclk\ $end
$var wire 1 G \entrada[0]~input_o\ $end
$var wire 1 H \carrega~input_o\ $end
$var wire 1 I \IQ~0_combout\ $end
$var wire 1 J \zera~input_o\ $end
$var wire 1 K \conta~input_o\ $end
$var wire 1 L \IQ[0]~1_combout\ $end
$var wire 1 M \entrada[1]~input_o\ $end
$var wire 1 N \IQ~2_combout\ $end
$var wire 1 O \entrada[2]~input_o\ $end
$var wire 1 P \IQ~3_combout\ $end
$var wire 1 Q \entrada[3]~input_o\ $end
$var wire 1 R \IQ~4_combout\ $end
$var wire 1 S \Equal0~0_combout\ $end
$var wire 1 T IQ [3] $end
$var wire 1 U IQ [2] $end
$var wire 1 V IQ [1] $end
$var wire 1 W IQ [0] $end
$var wire 1 X \ALT_INV_zera~input_o\ $end
$var wire 1 Y \ALT_INV_conta~input_o\ $end
$var wire 1 Z \ALT_INV_entrada[1]~input_o\ $end
$var wire 1 [ \ALT_INV_entrada[2]~input_o\ $end
$var wire 1 \ ALT_INV_IQ [3] $end
$var wire 1 ] ALT_INV_IQ [2] $end
$var wire 1 ^ ALT_INV_IQ [1] $end
$var wire 1 _ ALT_INV_IQ [0] $end
$var wire 1 ` \ALT_INV_carrega~input_o\ $end
$var wire 1 a \ALT_INV_entrada[0]~input_o\ $end
$var wire 1 b \ALT_INV_entrada[3]~input_o\ $end
$upscope $end
$upscope $end
$enddefinitions $end
#0
$dumpvars
0!
0"
1#
0,
0-
0.
1/
x0
11
12
13
14
15
16
07
08
19
0:
0C
xD
0E
0F
0G
0H
1I
0J
1K
1L
1M
0N
0O
0P
1Q
0R
0S
1X
0Y
0Z
1[
1`
1a
0b
1(
0)
1*
0+
1;
0<
1=
0>
0?
0@
0A
0B
0T
0U
0V
0W
1\
1]
1^
1_
0$
0%
0&
0'
$end
#20000
1"
17
1E
1F
1W
0_
0I
1N
1B
1'
#40000
0"
07
0E
0F
#60000
1"
17
1E
1F
0W
1V
0^
1_
1I
1A
0B
0'
1&
#80000
0"
07
0E
0F
#100000
1"
17
1E
1F
1W
0_
0I
0N
1P
1B
1'
#120000
0"
07
0E
0F
#140000
1"
17
1E
1F
0W
0V
1U
0]
1^
1_
1I
1@
0A
0B
0'
0&
1%
#160000
0"
07
0E
0F
#180000
1"
17
1E
1F
1W
0_
0I
1N
1B
1'
#200000
0"
07
0E
0F
#220000
1"
17
1E
1F
0W
1V
0^
1_
1I
1A
0B
0'
1&
#240000
0"
07
0E
0F
#260000
1"
17
1E
1F
1W
0_
0I
0N
0P
1R
1B
1'
#280000
0"
07
0E
0F
#290000
0#
09
0K
1Y
0L
#300000
1"
17
1E
1F
#320000
0"
07
0E
0F
#330000
1!
1:
1H
0`
1L
1N
#340000
1"
17
1E
1F
0W
0U
1T
0\
1]
1_
1?
0@
0B
0'
0%
1$
#360000
0"
07
0E
0F
#380000
1"
17
1E
1F
#390000
0!
0:
0H
1`
1I
0L
#400000
0"
07
0E
0F
#420000
1"
17
1E
1F
#440000
0"
07
0E
0F
#460000
1"
17
1E
1F
#480000
0"
1#
07
19
1K
0E
0F
0Y
1L
#500000
1"
17
1E
1F
1W
0_
0I
0N
1P
1B
1'
#520000
0"
07
0E
0F
#540000
1"
17
1E
1F
0W
0V
1U
0]
1^
1_
1I
1@
0A
0B
0'
0&
1%
#560000
0"
07
0E
0F
#580000
1"
17
1E
1F
1W
0_
0I
1N
1B
1'
#600000
0"
07
0E
0F
#620000
1"
17
1E
1F
0W
1V
0^
1_
1I
1A
0B
0'
1&
#640000
0"
07
0E
0F
#660000
1"
17
1E
1F
1W
0_
0I
0N
0P
0R
1S
1B
1'
1C
1,
#680000
0"
07
0E
0F
#700000
1"
17
1E
1F
0W
0V
0U
0T
1\
1]
1^
1_
1I
0S
0?
0@
0A
0B
0'
0&
0%
0$
0C
0,
#720000
0"
07
0E
0F
#740000
1"
17
1E
1F
1W
0_
0I
1N
1B
1'
#760000
0"
07
0E
0F
#770000
1-
18
1J
0X
0W
1_
1I
0N
0B
0'
#780000
1"
17
1E
1F
#800000
0"
07
0E
0F
#820000
1"
17
1E
1F
#840000
0"
07
0E
0F
#850000
0-
08
0J
1X
#860000
1"
17
1E
1F
1W
0_
0I
1N
1B
1'
#880000
0"
07
0E
0F
#900000
1"
17
1E
1F
0W
1V
0^
1_
1I
1A
0B
0'
1&
#920000
0"
07
0E
0F
#940000
1"
17
1E
1F
1W
0_
0I
0N
1P
1B
1'
#960000
0"
07
0E
0F
#980000
1"
17
1E
1F
0W
0V
1U
0]
1^
1_
1I
1@
0A
0B
0'
0&
1%
