P2/simul_unidade_De_controle.vcd
$date
  Mon Jul 18 12:12:08 2022
$end
$version
  GHDL v0
$end
$timescale
  1 fs
$end
$scope module standard $end
$upscope $end
$scope module std_logic_1164 $end
$upscope $end
$scope module math_real $end
$upscope $end
$scope module numeric_std $end
$upscope $end
$scope module tb_unidade_de_controle $end
$var reg 1 ! clock_in $end
$var reg 1 " clock_enable $end
$var reg 1 # grava_s $end
$var reg 1 $ conta_s $end
$var reg 1 % zera_s $end
$var reg 1 & programa_s_s $end
$var reg 1 ' clear_b_s $end
$var reg 1 ( grava_b_s $end
$var reg 1 ) inibe_b_s $end
$scope module dut $end
$var reg 1 * clock $end
$var reg 1 + programa_s $end
$var reg 1 , clear_b $end
$var reg 1 - grava_b $end
$var reg 1 . inibe_b $end
$var reg 1 / grava $end
$var reg 1 0 conta $end
$var reg 1 1 zera $end
$comment currentstate is not handled $end
$comment nextstate is not handled $end
$upscope $end
$upscope $end
$enddefinitions $end
#0
0!
1"
1#
0$
0%
1&
1'
1(
1)
0*
1+
1,
1-
1.
1/
00
01
#5000000000
1!
1$
1%
1*
10
11
#10000000000
0!
0*
#15000000000
1!
1*
#20000000000
0!
0*
#25000000000
1!
1*
#30000000000
0!
0*
#35000000000
1!
1*
#40000000000
0!
0*
#45000000000
1!
1*
#50000000000
0!
0*
#55000000000
1!
1*
#60000000000
0!
0*
#65000000000
1!
1*
#70000000000
0!
0*
#75000000000
1!
1*
#80000000000
0!
0*
#85000000000
1!
1*
#90000000000
0!
0*
#95000000000
1!
1*
#100000000000
0!
0*
#105000000000
1!
1*
#110000000000
0!
0*
#115000000000
1!
1*
#120000000000
0!
0*
#125000000000
1!
1*
#130000000000
0!
0*
#135000000000
1!
1*
#140000000000
0!
0*
#145000000000
1!
1*
#150000000000
0!
0*
#155000000000
1!
1*
#160000000000
0!
0*
#165000000000
1!
1*
#170000000000
0!
0*
#175000000000
1!
1*
#180000000000
0!
0*
#185000000000
1!
1*
#190000000000
0!
0*
#195000000000
1!
1*
#200000000000
0!
0'
0*
0,
#205000000000
1!
0$
0%
1*
00
01
#210000000000
0!
0*
#215000000000
1!
1*
#220000000000
0!
0*
#225000000000
1!
1*
#230000000000
0!
0*
#235000000000
1!
1*
#240000000000
0!
0*
#245000000000
1!
1*
#250000000000
0!
0*
#255000000000
1!
1*
#260000000000
0!
0*
#265000000000
1!
1*
#270000000000
0!
0*
#275000000000
1!
1*
#280000000000
0!
0*
#285000000000
1!
1*
#290000000000
0!
0*
#295000000000
1!
1*
#300000000000
0!
0*
#305000000000
1!
1*
#310000000000
0!
0*
#315000000000
1!
1*
#320000000000
0!
0*
#325000000000
1!
1*
#330000000000
0!
0*
#335000000000
1!
1*
#340000000000
0!
0*
#345000000000
1!
1*
#350000000000
0!
0*
#355000000000
1!
1*
#360000000000
0!
0*
#365000000000
1!
1*
#370000000000
0!
0*
#375000000000
1!
1*
#380000000000
0!
0*
#385000000000
1!
1*
#390000000000
0!
0*
#395000000000
1!
1*
#400000000000
0!
1'
0*
1,
#405000000000
1!
1$
1%
1*
10
11
#410000000000
0!
0*
#415000000000
1!
1*
#420000000000
0!
0*
#425000000000
1!
1*
#430000000000
0!
0*
#435000000000
1!
1*
#440000000000
0!
0*
#445000000000
1!
1*
#450000000000
0!
0*
#455000000000
1!
1*
#460000000000
0!
0*
#465000000000
1!
1*
#470000000000
0!
0*
#475000000000
1!
1*
#480000000000
0!
0*
#485000000000
1!
1*
#490000000000
0!
0*
#495000000000
1!
1*
#500000000000
0!
0*
#505000000000
1!
1*
#510000000000
0!
0*
#515000000000
1!
1*
#520000000000
0!
0*
#525000000000
1!
1*
#530000000000
0!
0*
#535000000000
1!
1*
#540000000000
0!
0*
#545000000000
1!
1*
#550000000000
0!
0*
#555000000000
1!
1*
#560000000000
0!
0*
#565000000000
1!
1*
#570000000000
0!
0*
#575000000000
1!
1*
#580000000000
0!
0*
#585000000000
1!
1*
#590000000000
0!
0*
#595000000000
1!
1*
#600000000000
0!
0&
0*
0+
#605000000000
1!
1*
#610000000000
0!
0*
#615000000000
1!
1*
#620000000000
0!
0*
#625000000000
1!
1*
#630000000000
0!
0*
#635000000000
1!
1*
#640000000000
0!
0*
#645000000000
1!
1*
#650000000000
0!
0*
#655000000000
1!
1*
#660000000000
0!
0*
#665000000000
1!
1*
#670000000000
0!
0*
#675000000000
1!
1*
#680000000000
0!
0*
#685000000000
1!
1*
#690000000000
0!
0*
#695000000000
1!
1*
#700000000000
0!
0*
#705000000000
1!
1*
#710000000000
0!
0*
#715000000000
1!
1*
#720000000000
0!
0*
#725000000000
1!
1*
#730000000000
0!
0*
#735000000000
1!
1*
#740000000000
0!
0*
#745000000000
1!
1*
#750000000000
0!
0*
#755000000000
1!
1*
#760000000000
0!
0*
#765000000000
1!
1*
#770000000000
0!
0*
#775000000000
1!
1*
#780000000000
0!
0*
#785000000000
1!
1*
#790000000000
0!
0*
#795000000000
1!
1*
#800000000000
0!
1&
0*
1+
#805000000000
1!
1*
#810000000000
0!
0*
#815000000000
1!
1*
#820000000000
0!
0*
#825000000000
1!
1*
#830000000000
0!
0*
#835000000000
1!
1*
#840000000000
0!
0*
#845000000000
1!
1*
#850000000000
0!
0*
#855000000000
1!
1*
#860000000000
0!
0*
#865000000000
1!
1*
#870000000000
0!
0*
#875000000000
1!
1*
#880000000000
0!
0*
#885000000000
1!
1*
#890000000000
0!
0*
#895000000000
1!
1*
#900000000000
0!
0*
#905000000000
1!
1*
#910000000000
0!
0*
#915000000000
1!
1*
#920000000000
0!
0*
#925000000000
1!
1*
#930000000000
0!
0*
#935000000000
1!
1*
#940000000000
0!
0*
#945000000000
1!
1*
#950000000000
0!
0*
#955000000000
1!
1*
#960000000000
0!
0*
#965000000000
1!
1*
#970000000000
0!
0*
#975000000000
1!
1*
#980000000000
0!
0*
#985000000000
1!
1*
#990000000000
0!
0*
#995000000000
1!
1*
#1000000000000
0!
0&
0*
0+
#1005000000000
1!
1*
#1010000000000
0!
0*
#1015000000000
1!
1*
#1020000000000
0!
0*
#1025000000000
1!
1*
#1030000000000
0!
0*
#1035000000000
1!
1*
#1040000000000
0!
0*
#1045000000000
1!
1*
#1050000000000
0!
0*
#1055000000000
1!
1*
#1060000000000
0!
0*
#1065000000000
1!
1*
#1070000000000
0!
0*
#1075000000000
1!
1*
#1080000000000
0!
0*
#1085000000000
1!
1*
#1090000000000
0!
0*
#1095000000000
1!
1*
#1100000000000
0!
0*
#1105000000000
1!
1*
#1110000000000
0!
0*
#1115000000000
1!
1*
#1120000000000
0!
0*
#1125000000000
1!
1*
#1130000000000
0!
0*
#1135000000000
1!
1*
#1140000000000
0!
0*
#1145000000000
1!
1*
#1150000000000
0!
0*
#1155000000000
1!
1*
#1160000000000
0!
0*
#1165000000000
1!
1*
#1170000000000
0!
0*
#1175000000000
1!
1*
#1180000000000
0!
0*
#1185000000000
1!
1*
#1190000000000
0!
0*
#1195000000000
1!
1*
#1200000000000
0!
0(
0*
0-
#1205000000000
1!
0#
1*
0/
#1210000000000
0!
0*
#1215000000000
1!
1*
#1220000000000
0!
0*
#1225000000000
1!
1*
#1230000000000
0!
0*
#1235000000000
1!
1*
#1240000000000
0!
0*
#1245000000000
1!
1*
#1250000000000
0!
0*
#1255000000000
1!
1*
#1260000000000
0!
0*
#1265000000000
1!
1*
#1270000000000
0!
0*
#1275000000000
1!
1*
#1280000000000
0!
0*
#1285000000000
1!
1*
#1290000000000
0!
0*
#1295000000000
1!
1*
#1300000000000
0!
0*
#1305000000000
1!
1*
#1310000000000
0!
0*
#1315000000000
1!
1*
#1320000000000
0!
0*
#1325000000000
1!
1*
#1330000000000
0!
0*
#1335000000000
1!
1*
#1340000000000
0!
0*
#1345000000000
1!
1*
#1350000000000
0!
0*
#1355000000000
1!
1*
#1360000000000
0!
0*
#1365000000000
1!
1*
#1370000000000
0!
0*
#1375000000000
1!
1*
#1380000000000
0!
0*
#1385000000000
1!
1*
#1390000000000
0!
0*
#1395000000000
1!
1*
#1400000000000
0!
1(
0*
1-
#1405000000000
1!
1#
1*
1/
#1410000000000
0!
0*
#1415000000000
1!
1*
#1420000000000
0!
0*
#1425000000000
1!
1*
#1430000000000
0!
0*
#1435000000000
1!
1*
#1440000000000
0!
0*
#1445000000000
1!
1*
#1450000000000
0!
0*
#1455000000000
1!
1*
#1460000000000
0!
0*
#1465000000000
1!
1*
#1470000000000
0!
0*
#1475000000000
1!
1*
#1480000000000
0!
0*
#1485000000000
1!
1*
#1490000000000
0!
0*
#1495000000000
1!
1*
#1500000000000
0!
0*
#1505000000000
1!
1*
#1510000000000
0!
0*
#1515000000000
1!
1*
#1520000000000
0!
0*
#1525000000000
1!
1*
#1530000000000
0!
0*
#1535000000000
1!
1*
#1540000000000
0!
0*
#1545000000000
1!
1*
#1550000000000
0!
0*
#1555000000000
1!
1*
#1560000000000
0!
0*
#1565000000000
1!
1*
#1570000000000
0!
0*
#1575000000000
1!
1*
#1580000000000
0!
0*
#1585000000000
1!
1*
#1590000000000
0!
0*
#1595000000000
1!
1*
#1600000000000
0!
1&
0*
1+
#1605000000000
1!
1*
#1610000000000
0!
0*
#1615000000000
1!
1*
#1620000000000
0!
0*
#1625000000000
1!
1*
#1630000000000
0!
0*
#1635000000000
1!
1*
#1640000000000
0!
0*
#1645000000000
1!
1*
#1650000000000
0!
0*
#1655000000000
1!
1*
#1660000000000
0!
0*
#1665000000000
1!
1*
#1670000000000
0!
0*
#1675000000000
1!
1*
#1680000000000
0!
0*
#1685000000000
1!
1*
#1690000000000
0!
0*
#1695000000000
1!
1*
#1700000000000
0!
0*
#1705000000000
1!
1*
#1710000000000
0!
0*
#1715000000000
1!
1*
#1720000000000
0!
0*
#1725000000000
1!
1*
#1730000000000
0!
0*
#1735000000000
1!
1*
#1740000000000
0!
0*
#1745000000000
1!
1*
#1750000000000
0!
0*
#1755000000000
1!
1*
#1760000000000
0!
0*
#1765000000000
1!
1*
#1770000000000
0!
0*
#1775000000000
1!
1*
#1780000000000
0!
0*
#1785000000000
1!
1*
#1790000000000
0!
0*
#1795000000000
1!
1*
#1800000000000
0!
0)
0*
0.
#1805000000000
1!
0$
1*
00
#1810000000000
0!
0*
#1815000000000
1!
1*
#1820000000000
0!
0*
#1825000000000
1!
1*
#1830000000000
0!
0*
#1835000000000
1!
1*
#1840000000000
0!
0*
#1845000000000
1!
1*
#1850000000000
0!
0*
#1855000000000
1!
1*
#1860000000000
0!
0*
#1865000000000
1!
1*
#1870000000000
0!
0*
#1875000000000
1!
1*
#1880000000000
0!
0*
#1885000000000
1!
1*
#1890000000000
0!
0*
#1895000000000
1!
1*
#1900000000000
0!
0*
#1905000000000
1!
1*
#1910000000000
0!
0*
#1915000000000
1!
1*
#1920000000000
0!
0*
#1925000000000
1!
1*
#1930000000000
0!
0*
#1935000000000
1!
1*
#1940000000000
0!
0*
#1945000000000
1!
1*
#1950000000000
0!
0*
#1955000000000
1!
1*
#1960000000000
0!
0*
#1965000000000
1!
1*
#1970000000000
0!
0*
#1975000000000
1!
1*
#1980000000000
0!
0*
#1985000000000
1!
1*
#1990000000000
0!
0*
#1995000000000
1!
1*
#2000000000000
0!
1)
0*
1.
#2005000000000
1!
1$
1*
10
#2010000000000
0!
0*
#2015000000000
1!
1*
#2020000000000
0!
0*
#2025000000000
1!
1*
#2030000000000
0!
0*
#2035000000000
1!
1*
#2040000000000
0!
0*
#2045000000000
1!
1*
#2050000000000
0!
0*
#2055000000000
1!
1*
#2060000000000
0!
0*
#2065000000000
1!
1*
#2070000000000
0!
0*
#2075000000000
1!
1*
#2080000000000
0!
0*
#2085000000000
1!
1*
#2090000000000
0!
0*
#2095000000000
1!
1*
#2100000000000
0!
0*
#2105000000000
1!
1*
#2110000000000
0!
0*
#2115000000000
1!
1*
#2120000000000
0!
0*
#2125000000000
1!
1*
#2130000000000
0!
0*
#2135000000000
1!
1*
#2140000000000
0!
0*
#2145000000000
1!
1*
#2150000000000
0!
0*
#2155000000000
1!
1*
#2160000000000
0!
0*
#2165000000000
1!
1*
#2170000000000
0!
0*
#2175000000000
1!
1*
#2180000000000
0!
0*
#2185000000000
1!
1*
#2190000000000
0!
0*
#2195000000000
1!
1*
#2200000000000
0!
0'
0)
0*
0,
0.
#2205000000000
1!
0$
0%
1*
00
01
