exp7/simulation/qsim/fluxo_de_dados.msim.vcd
$comment
	File created using the following command:
		vcd file fluxo_de_dados.msim.vcd -direction
$end
$date
	Fri Jun 03 20:44:03 2022
$end
$version
	ModelSim Version 2020.1
$end
$timescale
	1ps
$end

$scope module fluxo_de_dados_vhd_vec_tst $end
$var wire 1 ! acionamento_setor $end
$var wire 1 " clock $end
$var wire 1 # produto_configurado [1] $end
$var wire 1 $ produto_configurado [0] $end
$var wire 1 % produto_lido [1] $end
$var wire 1 & produto_lido [0] $end
$var wire 1 ' proximo $end
$var wire 1 ( reset $end
$var wire 1 ) setor_configurado [1] $end
$var wire 1 * setor_configurado [0] $end
$var wire 1 + setor_determinado [1] $end
$var wire 1 , setor_determinado [0] $end
$var wire 1 - setor_lido [1] $end
$var wire 1 . setor_lido [0] $end

$scope module i1 $end
$var wire 1 / gnd $end
$var wire 1 0 vcc $end
$var wire 1 1 unknown $end
$var wire 1 2 devoe $end
$var wire 1 3 devclrn $end
$var wire 1 4 devpor $end
$var wire 1 5 ww_devoe $end
$var wire 1 6 ww_devclrn $end
$var wire 1 7 ww_devpor $end
$var wire 1 8 ww_clock $end
$var wire 1 9 ww_reset $end
$var wire 1 : ww_proximo $end
$var wire 1 ; ww_produto_configurado [1] $end
$var wire 1 < ww_produto_configurado [0] $end
$var wire 1 = ww_setor_configurado [1] $end
$var wire 1 > ww_setor_configurado [0] $end
$var wire 1 ? ww_produto_lido [1] $end
$var wire 1 @ ww_produto_lido [0] $end
$var wire 1 A ww_setor_lido [1] $end
$var wire 1 B ww_setor_lido [0] $end
$var wire 1 C ww_setor_determinado [1] $end
$var wire 1 D ww_setor_determinado [0] $end
$var wire 1 E ww_acionamento_setor $end
$var wire 1 F \proximo~input_o\ $end
$var wire 1 G \setor_lido[0]~input_o\ $end
$var wire 1 H \setor_lido[1]~input_o\ $end
$var wire 1 I \~QUARTUS_CREATED_GND~I_combout\ $end
$var wire 1 J \setor_configurado[0]~input_o\ $end
$var wire 1 K \setor_configurado[1]~input_o\ $end
$var wire 1 L \clock~input_o\ $end
$var wire 1 M \produto_lido[0]~input_o\ $end
$var wire 1 N \produto_lido[1]~input_o\ $end
$var wire 1 O \produto_configurado[0]~input_o\ $end
$var wire 1 P \produto_configurado[1]~input_o\ $end
$var wire 1 Q \comp|LessThan1~0_combout\ $end
$var wire 1 R \reset~input_o\ $end
$var wire 1 S \ff|Q~q\ $end
$var wire 1 T \ALT_INV_produto_lido[1]~input_o\ $end
$var wire 1 U \ALT_INV_produto_configurado[1]~input_o\ $end
$var wire 1 V \ALT_INV_produto_configurado[0]~input_o\ $end
$var wire 1 W \ALT_INV_produto_lido[0]~input_o\ $end
$var wire 1 X \ALT_INV_reset~input_o\ $end
$upscope $end
$upscope $end
$enddefinitions $end
#0
$dumpvars
0!
0"
0'
0(
0/
10
x1
12
13
14
15
16
17
08
09
0:
0E
0F
0G
0H
xI
0J
0K
0L
0M
0N
0O
0P
0Q
0R
0S
1T
1U
1V
1W
1X
0#
0$
0%
0&
0)
0*
0-
0.
0;
0<
0=
0>
0?
0@
0A
0B
0C
0D
0+
0,
$end
#10000
1%
1&
1@
1?
1N
1M
0W
0T
1Q
#20000
1"
18
1L
1S
1E
1!
#40000
0"
08
0L
#60000
1"
1'
18
1:
1F
1L
#80000
0"
08
0L
#100000
1"
0%
0&
18
0@
0?
0N
0M
1L
1W
1T
0Q
#120000
0"
0'
08
0:
0F
0L
#140000
1"
18
1L
0S
0E
0!
#160000
0"
08
0L
#180000
1"
1'
18
1:
1F
1L
#200000
0"
08
0L
#220000
1"
18
1L
#240000
0"
0'
08
0:
0F
0L
#260000
1"
18
1L
#280000
0"
08
0L
#300000
1"
1'
18
1:
1F
1L
#320000
0"
08
0L
#340000
1"
18
1L
#360000
0"
0'
08
0:
0F
0L
#380000
1"
18
1L
#400000
0"
08
0L
#420000
1"
1'
18
1:
1F
1L
#440000
0"
08
0L
#460000
1"
18
1L
#480000
0"
0'
08
0:
0F
0L
#500000
1"
18
1L
#520000
0"
08
0L
#540000
1"
1'
18
1:
1F
1L
#560000
0"
08
0L
#580000
1"
18
1L
#600000
0"
0'
08
0:
0F
0L
#620000
1"
18
1L
#640000
0"
08
0L
#660000
1"
1'
18
1:
1F
1L
#680000
0"
08
0L
#700000
1"
18
1L
#720000
0"
0'
08
0:
0F
0L
#740000
1"
18
1L
#760000
0"
08
0L
#780000
1"
1'
18
1:
1F
1L
#800000
0"
08
0L
#820000
1"
18
1L
#840000
0"
0'
08
0:
0F
0L
#860000
1"
18
1L
#880000
0"
08
0L
#900000
1"
1'
18
1:
1F
1L
#920000
0"
08
0L
#940000
1"
18
1L
#960000
0"
0'
08
0:
0F
0L
#980000
1"
18
1L
