exp7/simulation/qsim/fluxo_de_dados.msim.vcd
$comment
	File created using the following command:
		vcd file fluxo_de_dados.msim.vcd -direction
$end
$date
	Sun Jun 05 20:17:34 2022
$end
$version
	ModelSim Version 10.5b
$end
$timescale
	1ps
$end

$scope module fluxo_de_dados_vlg_vec_tst $end
$var reg 1 ! clock $end
$var reg 1 " PC0 $end
$var reg 1 # PC1 $end
$var reg 1 $ PL0 $end
$var reg 1 % PL1 $end
$var reg 1 & proximo $end
$var reg 1 ' SC $end
$var reg 1 ( SL $end
$var wire 1 ) aciona $end
$var wire 1 * SD $end

$scope module i1 $end
$var wire 1 + gnd $end
$var wire 1 , vcc $end
$var wire 1 - unknown $end
$var tri1 1 . devclrn $end
$var tri1 1 / devpor $end
$var tri1 1 0 devoe $end
$var wire 1 1 SL~input_o $end
$var wire 1 2 ~QUARTUS_CREATED_GND~I_combout $end
$var wire 1 3 clock~input_o $end
$var wire 1 4 proximo~input_o $end
$var wire 1 5 inst5~feeder_combout $end
$var wire 1 6 inst5~q $end
$var wire 1 7 PL0~input_o $end
$var wire 1 8 PC0~input_o $end
$var wire 1 9 PC1~input_o $end
$var wire 1 : PL1~input_o $end
$var wire 1 ; inst2~combout $end
$var wire 1 < inst4~q $end
$var wire 1 = SC~input_o $end
$upscope $end
$upscope $end
$enddefinitions $end
#0
$dumpvars
0!
0"
0#
0$
0%
0&
0'
0(
0)
0*
0+
1,
x-
1.
1/
10
01
02
03
04
05
06
07
08
09
0:
1;
0<
0=
$end
#20000
1!
13
#40000
0!
03
#60000
1!
13
#80000
0!
03
#100000
1!
13
#110000
1$
1%
17
1:
0;
#120000
0!
03
#130000
1&
14
15
#140000
1!
13
16
#160000
0!
03
#180000
1!
13
#200000
0$
0%
0!
07
0:
03
1;
#220000
1!
13
#240000
0!
03
#260000
1!
13
#280000
0!
03
#290000
0&
04
05
#300000
1!
13
06
#320000
0!
03
#340000
1!
13
#360000
0!
03
#380000
1&
1!
14
13
15
#400000
0!
03
#420000
1!
13
16
1<
1)
#440000
1$
1%
0!
17
1:
03
0;
#460000
1!
13
#480000
0!
03
#500000
1!
13
#520000
0&
0!
04
03
05
#540000
1!
13
06
#560000
0!
03
#580000
1!
13
#600000
0!
03
#620000
1!
13
#640000
1&
0!
14
03
15
#660000
1!
13
16
0<
0)
#680000
0$
0%
0!
07
0:
03
1;
#700000
1!
13
#720000
0!
03
#730000
0&
04
05
#740000
1!
13
06
#760000
0!
03
#780000
1!
13
#800000
0!
03
#820000
1!
13
#840000
0!
03
#860000
1!
13
#880000
0!
03
#900000
1!
13
#920000
0!
03
#940000
1!
13
#960000
0!
03
#980000
1!
13
